{
    "index": {
        "download_fdroid": "TÉLÉCHARGEZ F-DROID",
        "introduction": "F-Droid est un catalogue de logiciels libres et Open Source pour la plateforme Android. Le client F-droid facilite la découverte, l'installation et la mise à jour d'applications sur votre appareil Android.",
        "gpg_signature": "Signature PGP",
        "screenshot": "Capture d'écran de l'application Android F-Droid",
        "title": "Qu’est-ce que F-Droid ?"
    },
    "navigation": {
        "about": "À Propos",
        "documentation": "Docs",
        "forum": "Forum",
        "browse": "Explorer",
        "contribute": "Contribuer",
        "repomaker": "Repomaker",
        "tutorials": "Tutoriaux",
        "news": "Actualités",
        "issues": "Problèmes"
    },
    "package": {
        "website": "Site web",
        "permissions": "Permissions",
        "donate": "Faire un don",
        "liberapay": "Liberapay",
        "technical_info": "Informations techniques",
        "build_metadata": "Métadonnées de compilation",
        "author": "Auteur",
        "new_in_version": "Nouveauté de la version [latest_version]",
        "version_info": "<b>Version [package_version]</b> ([package_version_code]) - Ajoutée le [package_added_date]",
        "changelog": "Journal des modifications",
        "issue_tracker": "Suivi des tickets",
        "signed_by_developer": "Compilé et signé par le développeur original.",
        "gpg_signature": "Signature PGP",
        "signed_by_fdroid": "Elle est construite et signée par F-Droid, et garantie comme correspondante à <a href=\"[source_code_url]\">cette archive source</a>.",
        "packages": "Installations",
        "download": "Télécharger l'[file_extension]",
        "license": "Licence",
        "minimum_android_version": "Cette version nécessite Android [android_version] ou ultérieur.",
        "suggest_downloading_via_fdroid": "Vous pouvez installer l'application en téléchargeant l'un des fichiers APK ci-dessous. Sachez que dans ce cas, vous ne serez pas notifiés lorsque des mises à jour de l'application seront disponibles. Vous pouvez aussi installer cette application en utilisant le client F-Droid.",
        "source_code": "Code source",
        "flattr": "Flattr"
    },
    "sidebars": {
        "latest_packages": {
            "heading": "Dernières applications"
        },
        "news": {
            "heading": "Actualités"
        },
        "search": {
            "noscript": "Nécessite que JavaScript soit activé",
            "search": "Rechercher",
            "heading": "Trouver des applis"
        },
        "donate": {
            "bank_transfer_name": "Nom",
            "bitcoin_alt": "Bitcoin",
            "powered_by_donations": "F-Droid est alimenté par vos dons !",
            "via_bank_transfer": "Virement",
            "litecoin_alt": "Faire un don en Litecoin",
            "flattr_alt": "Flattr",
            "paypal_alt": "Faire un don avec PayPal",
            "liberapay_alt": "Faire un don avec Liberapay",
            "heading": "Faire un don",
            "hellotux": "👕 T-shirts 👕 de",
            "hellotux_alt": "HELLOTUX",
            "hellotux_donation": "F-Droid reçoit 3 € par vêtement vendu."
        },
        "last_updated": {
            "heading": "Dernières mises à jour"
        }
    }
}
